<svg width="512" height="512" viewBox="0 0 512 512" fill="none" xmlns="http://www.w3.org/2000/svg">
<rect x="56" y="206" width="80" height="280" fill="#00E396"/>
<rect x="216" y="26" width="80" height="460" fill="#008FFB"/>
<rect x="376" y="306" width="80" height="180" fill="#FF4560"/>
</svg>
